{
  "images" : [
    {
      "filename" : "contact_11.jpeg",
      "idiom" : "universal",
      "scale" : "1x"
    },
    {
      "filename" : "contact_11@2x.jpeg",
      "idiom" : "universal",
      "scale" : "2x"
    },
    {
      "filename" : "contact_11@3x.jpeg",
      "idiom" : "universal",
      "scale" : "3x"
    }
  ],
  "info" : {
    "author" : "xcode",
    "version" : 1
  }
}
