{
  "images" : [
    {
      "filename" : "contact_3.jpeg",
      "idiom" : "universal",
      "scale" : "1x"
    },
    {
      "filename" : "contact_3@2x.jpeg",
      "idiom" : "universal",
      "scale" : "2x"
    },
    {
      "filename" : "contact_3@3x.jpeg",
      "idiom" : "universal",
      "scale" : "3x"
    }
  ],
  "info" : {
    "author" : "xcode",
    "version" : 1
  }
}
